(module C_0603 (layer F.Cu) (tedit 59B626B3)
  (descr "Capacitor SMD 0603, reflow soldering, AVX (see smccp.pdf)")
  (tags "capacitor 0603")
  (attr smd)
  (fp_text reference REF** (at 0 -1.016) (layer F.SilkS)
    (effects (font (size 0.5 0.5) (thickness 0.12)))
  )
  (fp_text value C_0603 (at 0 1.016) (layer F.Fab)
    (effects (font (size 0.5 0.5) (thickness 0.12)))
  )
  (fp_line (start -0.8 0.4) (end -0.8 -0.4) (layer F.Fab) (width 0.1))
  (fp_line (start 0.8 0.4) (end -0.8 0.4) (layer F.Fab) (width 0.1))
  (fp_line (start 0.8 -0.4) (end 0.8 0.4) (layer F.Fab) (width 0.1))
  (fp_line (start -0.8 -0.4) (end 0.8 -0.4) (layer F.Fab) (width 0.1))
  (fp_line (start -0.35 -0.6) (end 0.35 -0.6) (layer F.SilkS) (width 0.12))
  (fp_line (start 0.35 0.6) (end -0.35 0.6) (layer F.SilkS) (width 0.12))
  (fp_line (start -1.4 -0.65) (end 1.4 -0.65) (layer F.CrtYd) (width 0.05))
  (fp_line (start -1.4 -0.65) (end -1.4 0.65) (layer F.CrtYd) (width 0.05))
  (fp_line (start 1.4 0.65) (end 1.4 -0.65) (layer F.CrtYd) (width 0.05))
  (fp_line (start 1.4 0.65) (end -1.4 0.65) (layer F.CrtYd) (width 0.05))
  (pad 1 smd rect (at -0.75 0) (size 0.8 0.75) (layers F.Cu F.Paste F.Mask))
  (pad 2 smd rect (at 0.75 0) (size 0.8 0.75) (layers F.Cu F.Paste F.Mask))
  (model ${KIPRJMOD}/../.shape/C_0603.wrl
    (at (xyz 0 0 0))
    (scale (xyz 1 1 1))
    (rotate (xyz 0 0 0))
  )
)
