(module Crystal_HC49-U_Vertical (layer F.Cu) (tedit 59B62B56)
  (descr "Crystal Quarz HC49/U vertical stehend")
  (tags "Crystal Quarz HC49/U vertical stehend")
  (fp_text reference REF** (at 0 -2.794) (layer F.SilkS)
    (effects (font (size 0.5 0.5) (thickness 0.12)))
  )
  (fp_text value Crystal_HC49-U_Vertical (at 0 2.794) (layer F.Fab)
    (effects (font (size 0.5 0.5) (thickness 0.12)))
  )
  (fp_arc (start 3.302 0) (end 3.302 -2.32918) (angle 180) (layer F.SilkS) (width 0.15))
  (fp_arc (start -3.175 0) (end -3.175 2.32918) (angle 180) (layer F.SilkS) (width 0.15))
  (fp_line (start -3.302 -1.778) (end 3.302 -1.778) (layer F.Fab) (width 0.1))
  (fp_arc (start -3.302 0) (end -3.302 1.778) (angle 180) (layer F.Fab) (width 0.1))
  (fp_arc (start 3.302 0) (end 3.302 -1.778) (angle 180) (layer F.Fab) (width 0.1))
  (fp_line (start 3.29946 1.80086) (end -3.29946 1.80086) (layer F.Fab) (width 0.1))
  (fp_line (start -3.2004 2.32918) (end 3.2512 2.32918) (layer F.SilkS) (width 0.15))
  (fp_line (start -3.2004 -2.32918) (end 3.2512 -2.32918) (layer F.SilkS) (width 0.15))
  (pad 1 thru_hole circle (at -2.44094 0) (size 1.50114 1.50114) (drill 0.8001) (layers *.Cu *.Mask F.SilkS))
  (pad 2 thru_hole circle (at 2.44094 0) (size 1.50114 1.50114) (drill 0.8001) (layers *.Cu *.Mask F.SilkS))
  (model ${KIPRJMOD}/../.shape/Crystal_HC49-U_Vertical.wrl
    (at (xyz 0 0 0))
    (scale (xyz 0.3937 0.3937 0.3937))
    (rotate (xyz 0 0 0))
  )
)
