EESchema Schematic File Version 2
LIBS:power
LIBS:device
LIBS:transistors
LIBS:conn
LIBS:linear
LIBS:regul
LIBS:74xx
LIBS:cmos4000
LIBS:adc-dac
LIBS:memory
LIBS:xilinx
LIBS:microcontrollers
LIBS:dsp
LIBS:microchip
LIBS:analog_switches
LIBS:motorola
LIBS:texas
LIBS:intel
LIBS:audio
LIBS:interface
LIBS:digital-audio
LIBS:philips
LIBS:display
LIBS:cypress
LIBS:siliconi
LIBS:opto
LIBS:atmel
LIBS:contrib
LIBS:valves
LIBS:iface
LIBS:stm32
LIBS:esdprot
LIBS:project-cache
EELAYER 25 0
EELAYER END
$Descr A4 11693 8268
encoding utf-8
Sheet 1 1
Title ""
Date ""
Rev ""
Comp ""
Comment1 ""
Comment2 ""
Comment3 ""
Comment4 ""
$EndDescr
$Comp
L STM32F103C8T6 U1
U 1 1 5ABB337B
P 3400 2100
F 0 "U1" H 3400 3500 60  0000 C CNN
F 1 "STM32F103C8T6" H 3400 1200 60  0000 C CNN
F 2 "Local:LQFP-48_7x7mm_Pitch0.5mm" H 3400 1000 60  0000 C CNN
F 3 "" H 3500 1750 60  0000 C CNN
	1    3400 2100
	1    0    0    -1  
$EndComp
$Comp
L USB_OTG P10
U 1 1 5ABB3426
P 10600 1400
F 0 "P10" V 10300 1400 50  0000 C CNN
F 1 "USB_OTG" H 10600 1600 50  0000 C CNN
F 2 "Local:USB_Mini-B" H 10600 1700 50  0000 C CNN
F 3 "" V 10550 1300 50  0000 C CNN
	1    10600 1400
	0    1    1    0   
$EndComp
$Comp
L ESD_PROT U10
U 1 1 5ABB3557
P 9550 1550
F 0 "U10" H 9650 1300 60  0000 C CNN
F 1 "ESD_PROT" H 9800 1850 60  0000 C CNN
F 2 "Local:SOT-143" V 8900 1550 60  0000 C CNN
F 3 "" H 9550 1550 60  0000 C CNN
	1    9550 1550
	1    0    0    1   
$EndComp
$Comp
L GND #PWR01
U 1 1 5ABB3681
P 9050 1650
F 0 "#PWR01" H 9050 1400 50  0001 C CNN
F 1 "GND" H 9050 1500 50  0000 C CNN
F 2 "" H 9050 1650 50  0000 C CNN
F 3 "" H 9050 1650 50  0000 C CNN
	1    9050 1650
	1    0    0    -1  
$EndComp
$Comp
L R R12
U 1 1 5ABB36F5
P 9300 1100
F 0 "R12" V 9380 1100 50  0000 C CNN
F 1 "22R" V 9300 1100 50  0000 C CNN
F 2 "Local:R_0603" V 9230 1100 50  0001 C CNN
F 3 "" H 9300 1100 50  0000 C CNN
	1    9300 1100
	0    -1   -1   0   
$EndComp
$Comp
L R R11
U 1 1 5ABB37AB
P 9300 2000
F 0 "R11" V 9380 2000 50  0000 C CNN
F 1 "22R" V 9300 2000 50  0000 C CNN
F 2 "Local:R_0603" V 9230 2000 50  0001 C CNN
F 3 "" H 9300 2000 50  0000 C CNN
	1    9300 2000
	0    -1   -1   0   
$EndComp
NoConn ~ 10200 1500
$Comp
L GND #PWR02
U 1 1 5ABB3895
P 10200 1700
F 0 "#PWR02" H 10200 1450 50  0001 C CNN
F 1 "GND" H 10200 1550 50  0000 C CNN
F 2 "" H 10200 1700 50  0000 C CNN
F 3 "" H 10200 1700 50  0000 C CNN
	1    10200 1700
	1    0    0    -1  
$EndComp
$Comp
L R R10
U 1 1 5ABB38DC
P 10700 2150
F 0 "R10" V 10780 2150 50  0000 C CNN
F 1 "1M" V 10700 2150 50  0000 C CNN
F 2 "Local:R_0603" V 10630 2150 50  0001 C CNN
F 3 "" H 10700 2150 50  0000 C CNN
	1    10700 2150
	-1   0    0    1   
$EndComp
$Comp
L C C10
U 1 1 5ABB3997
P 10400 2150
F 0 "C10" H 10425 2250 50  0000 L CNN
F 1 "10n" H 10425 2050 50  0000 L CNN
F 2 "Local:C_0603" H 10438 2000 50  0001 C CNN
F 3 "" H 10400 2150 50  0000 C CNN
	1    10400 2150
	1    0    0    -1  
$EndComp
$Comp
L GND #PWR03
U 1 1 5ABB3A6D
P 10700 2500
F 0 "#PWR03" H 10700 2250 50  0001 C CNN
F 1 "GND" H 10700 2350 50  0000 C CNN
F 2 "" H 10700 2500 50  0000 C CNN
F 3 "" H 10700 2500 50  0000 C CNN
	1    10700 2500
	1    0    0    -1  
$EndComp
$Comp
L C C12
U 1 1 5ABB3C23
P 8800 2250
F 0 "C12" H 8825 2350 50  0000 L CNN
F 1 "47p" H 8825 2150 50  0000 L CNN
F 2 "Local:C_0603" H 8838 2100 50  0001 C CNN
F 3 "" H 8800 2250 50  0000 C CNN
	1    8800 2250
	1    0    0    -1  
$EndComp
$Comp
L C C11
U 1 1 5ABB3D0C
P 9050 2250
F 0 "C11" H 9075 2350 50  0000 L CNN
F 1 "47p" H 9075 2150 50  0000 L CNN
F 2 "Local:C_0603" H 9088 2100 50  0001 C CNN
F 3 "" H 9050 2250 50  0000 C CNN
	1    9050 2250
	1    0    0    -1  
$EndComp
$Comp
L GND #PWR04
U 1 1 5ABB3E20
P 9050 2500
F 0 "#PWR04" H 9050 2250 50  0001 C CNN
F 1 "GND" H 9050 2350 50  0000 C CNN
F 2 "" H 9050 2500 50  0000 C CNN
F 3 "" H 9050 2500 50  0000 C CNN
	1    9050 2500
	1    0    0    -1  
$EndComp
$Comp
L GND #PWR05
U 1 1 5ABB3E46
P 8800 2500
F 0 "#PWR05" H 8800 2250 50  0001 C CNN
F 1 "GND" H 8800 2350 50  0000 C CNN
F 2 "" H 8800 2500 50  0000 C CNN
F 3 "" H 8800 2500 50  0000 C CNN
	1    8800 2500
	1    0    0    -1  
$EndComp
Text GLabel 8700 2000 0    47   Input ~ 0
USB_DP
Text GLabel 8700 1800 0    47   Input ~ 0
USB_DM
$Comp
L C C4
U 1 1 5ABB4DC7
P 3500 4750
F 0 "C4" H 3525 4850 50  0000 L CNN
F 1 "100n" H 3525 4650 50  0000 L CNN
F 2 "Local:C_0603" H 3538 4600 50  0001 C CNN
F 3 "" H 3500 4750 50  0000 C CNN
	1    3500 4750
	1    0    0    -1  
$EndComp
$Comp
L C C5
U 1 1 5ABB4FD1
P 3800 4750
F 0 "C5" H 3825 4850 50  0000 L CNN
F 1 "100n" H 3825 4650 50  0000 L CNN
F 2 "Local:C_0603" H 3838 4600 50  0001 C CNN
F 3 "" H 3800 4750 50  0000 C CNN
	1    3800 4750
	1    0    0    -1  
$EndComp
$Comp
L GND #PWR06
U 1 1 5ABB519D
P 3500 5000
F 0 "#PWR06" H 3500 4750 50  0001 C CNN
F 1 "GND" H 3500 4850 50  0000 C CNN
F 2 "" H 3500 5000 50  0000 C CNN
F 3 "" H 3500 5000 50  0000 C CNN
	1    3500 5000
	1    0    0    -1  
$EndComp
$Comp
L GND #PWR07
U 1 1 5ABB51D0
P 3800 5000
F 0 "#PWR07" H 3800 4750 50  0001 C CNN
F 1 "GND" H 3800 4850 50  0000 C CNN
F 2 "" H 3800 5000 50  0000 C CNN
F 3 "" H 3800 5000 50  0000 C CNN
	1    3800 5000
	1    0    0    -1  
$EndComp
$Comp
L +3V3 #PWR08
U 1 1 5ABB5296
P 3500 4500
F 0 "#PWR08" H 3500 4350 50  0001 C CNN
F 1 "+3V3" H 3500 4640 50  0000 C CNN
F 2 "" H 3500 4500 50  0000 C CNN
F 3 "" H 3500 4500 50  0000 C CNN
	1    3500 4500
	1    0    0    -1  
$EndComp
$Comp
L +3V3 #PWR09
U 1 1 5ABB52C9
P 3800 4500
F 0 "#PWR09" H 3800 4350 50  0001 C CNN
F 1 "+3V3" H 3800 4640 50  0000 C CNN
F 2 "" H 3800 4500 50  0000 C CNN
F 3 "" H 3800 4500 50  0000 C CNN
	1    3800 4500
	1    0    0    -1  
$EndComp
$Comp
L +5V #PWR010
U 1 1 5ABB539C
P 10200 1100
F 0 "#PWR010" H 10200 950 50  0001 C CNN
F 1 "+5V" H 10200 1240 50  0000 C CNN
F 2 "" H 10200 1100 50  0000 C CNN
F 3 "" H 10200 1100 50  0000 C CNN
	1    10200 1100
	1    0    0    -1  
$EndComp
$Comp
L +5V #PWR011
U 1 1 5ABB53CF
P 9100 3000
F 0 "#PWR011" H 9100 2850 50  0001 C CNN
F 1 "+5V" H 9100 3140 50  0000 C CNN
F 2 "" H 9100 3000 50  0000 C CNN
F 3 "" H 9100 3000 50  0000 C CNN
	1    9100 3000
	1    0    0    -1  
$EndComp
$Comp
L LD1117S33CTR U20
U 1 1 5ABB548C
P 9600 3150
F 0 "U20" H 9600 3450 50  0000 C CNN
F 1 "AMS1117-3V3" H 9600 3350 50  0000 C CNN
F 2 "Local:SOT-223-3Lead_TabPin2" V 9950 2950 50  0001 C CNN
F 3 "" H 9600 3150 50  0000 C CNN
	1    9600 3150
	1    0    0    -1  
$EndComp
$Comp
L +3V3 #PWR012
U 1 1 5ABB55F7
P 10100 3000
F 0 "#PWR012" H 10100 2850 50  0001 C CNN
F 1 "+3V3" H 10100 3140 50  0000 C CNN
F 2 "" H 10100 3000 50  0000 C CNN
F 3 "" H 10100 3000 50  0000 C CNN
	1    10100 3000
	1    0    0    -1  
$EndComp
$Comp
L GND #PWR013
U 1 1 5ABB5626
P 9600 3500
F 0 "#PWR013" H 9600 3250 50  0001 C CNN
F 1 "GND" H 9600 3350 50  0000 C CNN
F 2 "" H 9600 3500 50  0000 C CNN
F 3 "" H 9600 3500 50  0000 C CNN
	1    9600 3500
	1    0    0    -1  
$EndComp
$Comp
L C C22
U 1 1 5ABB580B
P 10400 3250
F 0 "C22" H 10425 3350 50  0000 L CNN
F 1 "47u 10V" H 10250 3150 50  0000 L CNN
F 2 "Local:C_1206" H 10438 3100 50  0001 C CNN
F 3 "" H 10400 3250 50  0000 C CNN
	1    10400 3250
	1    0    0    -1  
$EndComp
$Comp
L +3V3 #PWR014
U 1 1 5ABB5937
P 10400 3000
F 0 "#PWR014" H 10400 2850 50  0001 C CNN
F 1 "+3V3" H 10400 3140 50  0000 C CNN
F 2 "" H 10400 3000 50  0000 C CNN
F 3 "" H 10400 3000 50  0000 C CNN
	1    10400 3000
	1    0    0    -1  
$EndComp
$Comp
L GND #PWR015
U 1 1 5ABB59AE
P 10400 3500
F 0 "#PWR015" H 10400 3250 50  0001 C CNN
F 1 "GND" H 10400 3350 50  0000 C CNN
F 2 "" H 10400 3500 50  0000 C CNN
F 3 "" H 10400 3500 50  0000 C CNN
	1    10400 3500
	1    0    0    -1  
$EndComp
$Comp
L C C20
U 1 1 5ABB5AF5
P 8500 3250
F 0 "C20" H 8525 3350 50  0000 L CNN
F 1 "47u 10V" H 8350 3150 50  0000 L CNN
F 2 "Local:C_1206" H 8538 3100 50  0001 C CNN
F 3 "" H 8500 3250 50  0000 C CNN
	1    8500 3250
	1    0    0    -1  
$EndComp
$Comp
L GND #PWR016
U 1 1 5ABB5B02
P 8500 3500
F 0 "#PWR016" H 8500 3250 50  0001 C CNN
F 1 "GND" H 8500 3350 50  0000 C CNN
F 2 "" H 8500 3500 50  0000 C CNN
F 3 "" H 8500 3500 50  0000 C CNN
	1    8500 3500
	1    0    0    -1  
$EndComp
$Comp
L +5V #PWR017
U 1 1 5ABB5B9B
P 8500 3000
F 0 "#PWR017" H 8500 2850 50  0001 C CNN
F 1 "+5V" H 8500 3140 50  0000 C CNN
F 2 "" H 8500 3000 50  0000 C CNN
F 3 "" H 8500 3000 50  0000 C CNN
	1    8500 3000
	1    0    0    -1  
$EndComp
$Comp
L C C6
U 1 1 5ABB5E5E
P 4100 4750
F 0 "C6" H 4125 4850 50  0000 L CNN
F 1 "100n" H 4125 4650 50  0000 L CNN
F 2 "Local:C_0603" H 4138 4600 50  0001 C CNN
F 3 "" H 4100 4750 50  0000 C CNN
	1    4100 4750
	1    0    0    -1  
$EndComp
$Comp
L C C7
U 1 1 5ABB5E64
P 4400 4750
F 0 "C7" H 4425 4850 50  0000 L CNN
F 1 "100n" H 4425 4650 50  0000 L CNN
F 2 "Local:C_0603" H 4438 4600 50  0001 C CNN
F 3 "" H 4400 4750 50  0000 C CNN
	1    4400 4750
	1    0    0    -1  
$EndComp
$Comp
L GND #PWR018
U 1 1 5ABB5E6E
P 4100 5000
F 0 "#PWR018" H 4100 4750 50  0001 C CNN
F 1 "GND" H 4100 4850 50  0000 C CNN
F 2 "" H 4100 5000 50  0000 C CNN
F 3 "" H 4100 5000 50  0000 C CNN
	1    4100 5000
	1    0    0    -1  
$EndComp
$Comp
L GND #PWR019
U 1 1 5ABB5E74
P 4400 5000
F 0 "#PWR019" H 4400 4750 50  0001 C CNN
F 1 "GND" H 4400 4850 50  0000 C CNN
F 2 "" H 4400 5000 50  0000 C CNN
F 3 "" H 4400 5000 50  0000 C CNN
	1    4400 5000
	1    0    0    -1  
$EndComp
$Comp
L +3V3 #PWR020
U 1 1 5ABB5E7A
P 4100 4500
F 0 "#PWR020" H 4100 4350 50  0001 C CNN
F 1 "+3V3" H 4100 4640 50  0000 C CNN
F 2 "" H 4100 4500 50  0000 C CNN
F 3 "" H 4100 4500 50  0000 C CNN
	1    4100 4500
	1    0    0    -1  
$EndComp
$Comp
L +3V3 #PWR021
U 1 1 5ABB5E80
P 4400 4500
F 0 "#PWR021" H 4400 4350 50  0001 C CNN
F 1 "+3V3" H 4400 4640 50  0000 C CNN
F 2 "" H 4400 4500 50  0000 C CNN
F 3 "" H 4400 4500 50  0000 C CNN
	1    4400 4500
	1    0    0    -1  
$EndComp
$Comp
L C C21
U 1 1 5ABB6015
P 8800 3250
F 0 "C21" H 8825 3350 50  0000 L CNN
F 1 "100n" H 8850 3150 50  0000 L CNN
F 2 "Local:C_0603" H 8838 3100 50  0001 C CNN
F 3 "" H 8800 3250 50  0000 C CNN
	1    8800 3250
	1    0    0    -1  
$EndComp
$Comp
L GND #PWR022
U 1 1 5ABB601C
P 8800 3500
F 0 "#PWR022" H 8800 3250 50  0001 C CNN
F 1 "GND" H 8800 3350 50  0000 C CNN
F 2 "" H 8800 3500 50  0000 C CNN
F 3 "" H 8800 3500 50  0000 C CNN
	1    8800 3500
	1    0    0    -1  
$EndComp
$Comp
L +5V #PWR023
U 1 1 5ABB6023
P 8800 3000
F 0 "#PWR023" H 8800 2850 50  0001 C CNN
F 1 "+5V" H 8800 3140 50  0000 C CNN
F 2 "" H 8800 3000 50  0000 C CNN
F 3 "" H 8800 3000 50  0000 C CNN
	1    8800 3000
	1    0    0    -1  
$EndComp
$Comp
L D_Zener D30
U 1 1 5ABB6628
P 5000 4750
F 0 "D30" H 5000 4850 50  0000 C CNN
F 1 "5V1" H 5000 4650 50  0000 C CNN
F 2 "Local:D_MiniMELF" H 5000 4750 50  0001 C CNN
F 3 "" H 5000 4750 50  0000 C CNN
	1    5000 4750
	0    -1   1    0   
$EndComp
$Comp
L GND #PWR024
U 1 1 5ABB66A7
P 5000 5000
F 0 "#PWR024" H 5000 4750 50  0001 C CNN
F 1 "GND" H 5000 4850 50  0000 C CNN
F 2 "" H 5000 5000 50  0000 C CNN
F 3 "" H 5000 5000 50  0000 C CNN
	1    5000 5000
	1    0    0    -1  
$EndComp
Text GLabel 5000 4500 1    47   Input ~ 0
VTG
$Comp
L C C30
U 1 1 5ABB6B69
P 5300 4750
F 0 "C30" H 5325 4850 50  0000 L CNN
F 1 "10u 10V" H 5150 4650 50  0000 L CNN
F 2 "Local:C_0805" H 5338 4600 50  0001 C CNN
F 3 "" H 5300 4750 50  0000 C CNN
	1    5300 4750
	1    0    0    -1  
$EndComp
$Comp
L GND #PWR025
U 1 1 5ABB6B76
P 5300 5000
F 0 "#PWR025" H 5300 4750 50  0001 C CNN
F 1 "GND" H 5300 4850 50  0000 C CNN
F 2 "" H 5300 5000 50  0000 C CNN
F 3 "" H 5300 5000 50  0000 C CNN
	1    5300 5000
	1    0    0    -1  
$EndComp
$Comp
L C C31
U 1 1 5ABB6C21
P 5600 4750
F 0 "C31" H 5625 4850 50  0000 L CNN
F 1 "100n" H 5625 4650 50  0000 L CNN
F 2 "Local:C_0603" H 5638 4600 50  0001 C CNN
F 3 "" H 5600 4750 50  0000 C CNN
	1    5600 4750
	1    0    0    -1  
$EndComp
$Comp
L GND #PWR026
U 1 1 5ABB6C29
P 5600 5000
F 0 "#PWR026" H 5600 4750 50  0001 C CNN
F 1 "GND" H 5600 4850 50  0000 C CNN
F 2 "" H 5600 5000 50  0000 C CNN
F 3 "" H 5600 5000 50  0000 C CNN
	1    5600 5000
	1    0    0    -1  
$EndComp
Text GLabel 5300 4500 1    47   Input ~ 0
VTG
Text GLabel 5600 4500 1    47   Input ~ 0
VTG
$Comp
L C C23
U 1 1 5ABB3359
P 10700 3250
F 0 "C23" H 10725 3350 50  0000 L CNN
F 1 "100n" H 10725 3150 50  0000 L CNN
F 2 "Local:C_0603" H 10738 3100 50  0001 C CNN
F 3 "" H 10700 3250 50  0000 C CNN
	1    10700 3250
	1    0    0    -1  
$EndComp
$Comp
L GND #PWR027
U 1 1 5ABB3361
P 10700 3500
F 0 "#PWR027" H 10700 3250 50  0001 C CNN
F 1 "GND" H 10700 3350 50  0000 C CNN
F 2 "" H 10700 3500 50  0000 C CNN
F 3 "" H 10700 3500 50  0000 C CNN
	1    10700 3500
	1    0    0    -1  
$EndComp
$Comp
L +3V3 #PWR028
U 1 1 5ABB3367
P 10700 3000
F 0 "#PWR028" H 10700 2850 50  0001 C CNN
F 1 "+3V3" H 10700 3140 50  0000 C CNN
F 2 "" H 10700 3000 50  0000 C CNN
F 3 "" H 10700 3000 50  0000 C CNN
	1    10700 3000
	1    0    0    -1  
$EndComp
$Comp
L R R31
U 1 1 5ABB3624
P 6000 4250
F 0 "R31" V 6080 4250 50  0000 C CNN
F 1 "4K7" V 6000 4250 50  0000 C CNN
F 2 "Local:R_0603" V 5930 4250 50  0001 C CNN
F 3 "" H 6000 4250 50  0000 C CNN
	1    6000 4250
	-1   0    0    1   
$EndComp
$Comp
L R R30
U 1 1 5ABB381D
P 6000 4750
F 0 "R30" V 6080 4750 50  0000 C CNN
F 1 "4K7" V 6000 4750 50  0000 C CNN
F 2 "Local:R_0603" V 5930 4750 50  0001 C CNN
F 3 "" H 6000 4750 50  0000 C CNN
	1    6000 4750
	-1   0    0    1   
$EndComp
Text GLabel 6000 4000 1    47   Input ~ 0
VTG
$Comp
L GND #PWR029
U 1 1 5ABB398D
P 6000 5000
F 0 "#PWR029" H 6000 4750 50  0001 C CNN
F 1 "GND" H 6000 4850 50  0000 C CNN
F 2 "" H 6000 5000 50  0000 C CNN
F 3 "" H 6000 5000 50  0000 C CNN
	1    6000 5000
	1    0    0    -1  
$EndComp
$Comp
L C C32
U 1 1 5ABB3C08
P 6300 4750
F 0 "C32" H 6325 4850 50  0000 L CNN
F 1 "100n" H 6325 4650 50  0000 L CNN
F 2 "Local:C_0603" H 6338 4600 50  0001 C CNN
F 3 "" H 6300 4750 50  0000 C CNN
	1    6300 4750
	1    0    0    -1  
$EndComp
$Comp
L GND #PWR030
U 1 1 5ABB3D06
P 6300 5000
F 0 "#PWR030" H 6300 4750 50  0001 C CNN
F 1 "GND" H 6300 4850 50  0000 C CNN
F 2 "" H 6300 5000 50  0000 C CNN
F 3 "" H 6300 5000 50  0000 C CNN
	1    6300 5000
	1    0    0    -1  
$EndComp
Text GLabel 6400 4500 2    47   Input ~ 0
VTG_IN
Text GLabel 1200 900  0    47   Input ~ 0
VTG_IN
$Comp
L GND #PWR031
U 1 1 5ABB46D6
P 1200 3400
F 0 "#PWR031" H 1200 3150 50  0001 C CNN
F 1 "GND" H 1200 3250 50  0000 C CNN
F 2 "" H 1200 3400 50  0000 C CNN
F 3 "" H 1200 3400 50  0000 C CNN
	1    1200 3400
	1    0    0    -1  
$EndComp
$Comp
L +3V3 #PWR032
U 1 1 5ABB4A55
P 1100 2600
F 0 "#PWR032" H 1100 2450 50  0001 C CNN
F 1 "+3V3" H 1100 2740 50  0000 C CNN
F 2 "" H 1100 2600 50  0000 C CNN
F 3 "" H 1100 2600 50  0000 C CNN
	1    1100 2600
	1    0    0    -1  
$EndComp
$Comp
L +3V3 #PWR033
U 1 1 5ABB4AA8
P 5600 3300
F 0 "#PWR033" H 5600 3150 50  0001 C CNN
F 1 "+3V3" V 5600 3500 50  0000 C CNN
F 2 "" H 5600 3300 50  0000 C CNN
F 3 "" H 5600 3300 50  0000 C CNN
	1    5600 3300
	0    1    1    0   
$EndComp
$Comp
L Crystal Y1
U 1 1 5ABB4EDE
P 2750 4500
F 0 "Y1" H 2750 4650 50  0000 C CNN
F 1 "8MHz" H 2750 4350 50  0000 C CNN
F 2 "Local:Crystal_HC49-U_Vertical" H 2750 4500 50  0001 C CNN
F 3 "" H 2750 4500 50  0000 C CNN
	1    2750 4500
	1    0    0    -1  
$EndComp
$Comp
L C C2
U 1 1 5ABB5321
P 2500 4750
F 0 "C2" H 2525 4850 50  0000 L CNN
F 1 "20p" H 2525 4650 50  0000 L CNN
F 2 "Local:C_0603" H 2538 4600 50  0001 C CNN
F 3 "" H 2500 4750 50  0000 C CNN
	1    2500 4750
	1    0    0    -1  
$EndComp
$Comp
L C C3
U 1 1 5ABB5327
P 3000 4750
F 0 "C3" H 3025 4850 50  0000 L CNN
F 1 "20p" H 3025 4650 50  0000 L CNN
F 2 "Local:C_0603" H 3038 4600 50  0001 C CNN
F 3 "" H 3000 4750 50  0000 C CNN
	1    3000 4750
	1    0    0    -1  
$EndComp
$Comp
L GND #PWR034
U 1 1 5ABB532F
P 2500 5000
F 0 "#PWR034" H 2500 4750 50  0001 C CNN
F 1 "GND" H 2500 4850 50  0000 C CNN
F 2 "" H 2500 5000 50  0000 C CNN
F 3 "" H 2500 5000 50  0000 C CNN
	1    2500 5000
	1    0    0    -1  
$EndComp
$Comp
L GND #PWR035
U 1 1 5ABB5335
P 3000 5000
F 0 "#PWR035" H 3000 4750 50  0001 C CNN
F 1 "GND" H 3000 4850 50  0000 C CNN
F 2 "" H 3000 5000 50  0000 C CNN
F 3 "" H 3000 5000 50  0000 C CNN
	1    3000 5000
	1    0    0    -1  
$EndComp
Text GLabel 2500 4400 1    47   Input ~ 0
OSC_IN
Text GLabel 3000 4400 1    47   Input ~ 0
OSC_OUT
Text GLabel 5600 2900 2    47   Input ~ 0
OSC_IN
Text GLabel 5600 3000 2    47   Input ~ 0
OSC_OUT
Text GLabel 5600 3200 2    47   Input ~ 0
BOOT0
Text GLabel 5600 3100 2    47   Input ~ 0
~RESET
NoConn ~ 5600 2700
NoConn ~ 5600 2800
NoConn ~ 5600 2600
$Comp
L C C1
U 1 1 5ABB6D8A
P 1000 4750
F 0 "C1" H 1025 4850 50  0000 L CNN
F 1 "100n" H 1025 4650 50  0000 L CNN
F 2 "Local:C_0603" H 1038 4600 50  0001 C CNN
F 3 "" H 1000 4750 50  0000 C CNN
	1    1000 4750
	1    0    0    -1  
$EndComp
$Comp
L GND #PWR036
U 1 1 5ABB6D91
P 1000 5000
F 0 "#PWR036" H 1000 4750 50  0001 C CNN
F 1 "GND" H 1000 4850 50  0000 C CNN
F 2 "" H 1000 5000 50  0000 C CNN
F 3 "" H 1000 5000 50  0000 C CNN
	1    1000 5000
	1    0    0    -1  
$EndComp
$Comp
L R R1
U 1 1 5ABB74B2
P 1000 4250
F 0 "R1" V 1080 4250 50  0000 C CNN
F 1 "100K" V 1000 4250 50  0000 C CNN
F 2 "Local:R_0603" V 930 4250 50  0001 C CNN
F 3 "" H 1000 4250 50  0000 C CNN
	1    1000 4250
	-1   0    0    1   
$EndComp
Text GLabel 1100 4500 2    47   Input ~ 0
~RESET
$Comp
L +3V3 #PWR037
U 1 1 5ABB78EB
P 1000 4000
F 0 "#PWR037" H 1000 3850 50  0001 C CNN
F 1 "+3V3" H 1000 4140 50  0000 C CNN
F 2 "" H 1000 4000 50  0000 C CNN
F 3 "" H 1000 4000 50  0000 C CNN
	1    1000 4000
	1    0    0    -1  
$EndComp
Text GLabel 2000 4500 2    47   Input ~ 0
BOOT0
$Comp
L CONN_01X02 P1
U 1 1 5ABB806F
P 1600 4450
F 0 "P1" H 1600 4300 50  0000 C CNN
F 1 "BL_EN" V 1700 4450 50  0000 C CNN
F 2 "Local:Pin_Header_Straight_1x02_Pitch2.54mm" H 1600 4450 50  0001 C CNN
F 3 "" H 1600 4450 50  0000 C CNN
	1    1600 4450
	-1   0    0    1   
$EndComp
$Comp
L +3V3 #PWR038
U 1 1 5ABB83A4
P 1900 4300
F 0 "#PWR038" H 1900 4150 50  0001 C CNN
F 1 "+3V3" H 1900 4440 50  0000 C CNN
F 2 "" H 1900 4300 50  0000 C CNN
F 3 "" H 1900 4300 50  0000 C CNN
	1    1900 4300
	1    0    0    -1  
$EndComp
$Comp
L R R2
U 1 1 5ABB880B
P 1900 4750
F 0 "R2" V 1980 4750 50  0000 C CNN
F 1 "100K" V 1900 4750 50  0000 C CNN
F 2 "Local:R_0603" V 1830 4750 50  0001 C CNN
F 3 "" H 1900 4750 50  0000 C CNN
	1    1900 4750
	-1   0    0    1   
$EndComp
$Comp
L GND #PWR039
U 1 1 5ABB8BC0
P 1900 5000
F 0 "#PWR039" H 1900 4750 50  0001 C CNN
F 1 "GND" H 1900 4850 50  0000 C CNN
F 2 "" H 1900 5000 50  0000 C CNN
F 3 "" H 1900 5000 50  0000 C CNN
	1    1900 5000
	1    0    0    -1  
$EndComp
Text GLabel 1200 2000 0    47   Input ~ 0
USB_DM
Text GLabel 1200 2100 0    47   Input ~ 0
USB_DP
Text GLabel 1200 1800 0    47   Input ~ 0
U_BL_TX
Text GLabel 1200 1900 0    47   Input ~ 0
U_BL_RX
$Comp
L GND #PWR040
U 1 1 5ABBBEF2
P 6000 1100
F 0 "#PWR040" H 6000 850 50  0001 C CNN
F 1 "GND" V 6000 900 50  0000 C CNN
F 2 "" H 6000 1100 50  0000 C CNN
F 3 "" H 6000 1100 50  0000 C CNN
	1    6000 1100
	0    -1   -1   0   
$EndComp
$Comp
L R R25
U 1 1 5ABBC362
P 5750 1400
F 0 "R25" V 5830 1400 50  0000 C CNN
F 1 "220R" V 5750 1400 50  0000 C CNN
F 2 "Local:R_0603" V 5680 1400 50  0001 C CNN
F 3 "" H 5750 1400 50  0000 C CNN
	1    5750 1400
	0    -1   -1   0   
$EndComp
Text GLabel 6100 1400 2    47   Input ~ 0
T_SWIM_RST
$Comp
L R R27
U 1 1 5ABBCE4B
P 5950 1800
F 0 "R27" V 6030 1800 50  0000 C CNN
F 1 "220R" V 5950 1800 50  0000 C CNN
F 2 "Local:R_0603" V 5880 1800 50  0001 C CNN
F 3 "" H 5950 1800 50  0000 C CNN
	1    5950 1800
	0    -1   -1   0   
$EndComp
Wire Wire Line
	10100 1300 10300 1300
Wire Wire Line
	10100 1400 10300 1400
Wire Wire Line
	10300 1500 10200 1500
Wire Wire Line
	10300 1600 10200 1600
Wire Wire Line
	10000 1550 9900 1550
Wire Wire Line
	10000 1200 10000 1550
Wire Wire Line
	10000 1200 10300 1200
Wire Wire Line
	10200 1200 10200 1100
Wire Wire Line
	9200 1550 9050 1550
Wire Wire Line
	9050 1550 9050 1650
Wire Wire Line
	9550 1200 9550 1100
Wire Wire Line
	9450 1100 10100 1100
Wire Wire Line
	10100 1100 10100 1300
Wire Wire Line
	9550 1900 9550 2000
Wire Wire Line
	9450 2000 10100 2000
Wire Wire Line
	10100 2000 10100 1400
Connection ~ 9550 1100
Connection ~ 9550 2000
Wire Wire Line
	10200 1600 10200 1700
Wire Wire Line
	10400 2000 10400 1900
Wire Wire Line
	10400 1900 10700 1900
Wire Wire Line
	10700 1800 10700 2000
Connection ~ 10700 1900
Wire Wire Line
	10400 2300 10400 2400
Wire Wire Line
	10400 2400 10700 2400
Wire Wire Line
	10700 2300 10700 2500
Connection ~ 10700 2400
Wire Wire Line
	8800 1100 9150 1100
Wire Wire Line
	9050 2100 9050 2000
Wire Wire Line
	8700 2000 9150 2000
Wire Wire Line
	8800 1100 8800 2100
Wire Wire Line
	9050 2400 9050 2500
Wire Wire Line
	8800 2400 8800 2500
Connection ~ 9050 2000
Wire Wire Line
	8800 1800 8700 1800
Connection ~ 8800 1800
Connection ~ 10200 1200
Wire Wire Line
	3500 4600 3500 4500
Wire Wire Line
	3500 4900 3500 5000
Wire Wire Line
	3800 4900 3800 5000
Wire Wire Line
	3800 4600 3800 4500
Wire Wire Line
	9100 3000 9100 3100
Wire Wire Line
	9100 3100 9200 3100
Wire Wire Line
	10000 3100 10100 3100
Wire Wire Line
	10100 3100 10100 3000
Wire Wire Line
	9600 3400 9600 3500
Wire Wire Line
	10400 3100 10400 3000
Wire Wire Line
	10400 3400 10400 3500
Wire Wire Line
	8500 3100 8500 3000
Wire Wire Line
	8500 3400 8500 3500
Wire Wire Line
	4100 4600 4100 4500
Wire Wire Line
	4100 4900 4100 5000
Wire Wire Line
	4400 4900 4400 5000
Wire Wire Line
	4400 4600 4400 4500
Wire Wire Line
	8800 3100 8800 3000
Wire Wire Line
	8800 3400 8800 3500
Wire Wire Line
	5000 4600 5000 4500
Wire Wire Line
	5000 4900 5000 5000
Wire Wire Line
	5300 4600 5300 4500
Wire Wire Line
	5300 4900 5300 5000
Wire Wire Line
	5600 4900 5600 5000
Wire Wire Line
	5600 4600 5600 4500
Wire Wire Line
	10700 3400 10700 3500
Wire Wire Line
	10700 3100 10700 3000
Wire Wire Line
	6000 5000 6000 4900
Wire Wire Line
	6000 4400 6000 4600
Wire Wire Line
	6000 4100 6000 4000
Wire Wire Line
	6000 4500 6400 4500
Connection ~ 6000 4500
Wire Wire Line
	6300 4900 6300 5000
Wire Wire Line
	6300 4500 6300 4600
Connection ~ 6300 4500
Wire Wire Line
	1200 900  1300 900 
Wire Wire Line
	1200 3200 1300 3200
Wire Wire Line
	1200 2600 1200 3400
Wire Wire Line
	1300 3000 1200 3000
Connection ~ 1200 3200
Wire Wire Line
	1300 2800 1200 2800
Connection ~ 1200 3000
Wire Wire Line
	1300 2600 1200 2600
Connection ~ 1200 2800
Wire Wire Line
	1100 3300 1300 3300
Wire Wire Line
	1100 2600 1100 3300
Wire Wire Line
	1100 3100 1300 3100
Wire Wire Line
	1300 2900 1100 2900
Connection ~ 1100 3100
Wire Wire Line
	1300 2700 1100 2700
Connection ~ 1100 2900
Wire Wire Line
	5500 3300 5600 3300
Connection ~ 1100 2700
Wire Wire Line
	5500 3200 5600 3200
Wire Wire Line
	2900 4500 3000 4500
Wire Wire Line
	3000 4400 3000 4600
Wire Wire Line
	2600 4500 2500 4500
Wire Wire Line
	2500 4400 2500 4600
Connection ~ 2500 4500
Connection ~ 3000 4500
Wire Wire Line
	2500 4900 2500 5000
Wire Wire Line
	3000 4900 3000 5000
Wire Wire Line
	5600 2900 5500 2900
Wire Wire Line
	5600 3000 5500 3000
Wire Wire Line
	5500 3100 5600 3100
Wire Wire Line
	5500 2700 5600 2700
Wire Wire Line
	5500 2800 5600 2800
Wire Wire Line
	5500 2600 5600 2600
Wire Wire Line
	1000 4900 1000 5000
Wire Wire Line
	1000 4400 1000 4600
Wire Wire Line
	1000 4500 1100 4500
Connection ~ 1000 4500
Wire Wire Line
	1000 4100 1000 4000
Wire Wire Line
	1800 4400 1900 4400
Wire Wire Line
	1900 4400 1900 4300
Wire Wire Line
	1800 4500 2000 4500
Wire Wire Line
	1900 4500 1900 4600
Connection ~ 1900 4500
Wire Wire Line
	1900 4900 1900 5000
Wire Wire Line
	1300 2000 1200 2000
Wire Wire Line
	1300 2100 1200 2100
Wire Wire Line
	1300 1800 1200 1800
Wire Wire Line
	1300 1900 1200 1900
Wire Wire Line
	5500 1100 5600 1100
Wire Wire Line
	5500 900  5600 900 
Wire Wire Line
	5500 1000 5600 1000
Wire Wire Line
	5500 1400 5600 1400
Wire Wire Line
	5500 1500 6000 1500
Wire Wire Line
	6000 1500 6000 1400
Wire Wire Line
	5900 1400 6100 1400
Connection ~ 6000 1400
Wire Wire Line
	5500 1600 5600 1600
Wire Wire Line
	5600 1600 5600 1900
Wire Wire Line
	5500 1800 5800 1800
Wire Wire Line
	5600 1900 5500 1900
Connection ~ 5600 1800
Wire Wire Line
	5500 1700 5700 1700
Wire Wire Line
	5700 1600 5700 2000
Wire Wire Line
	5700 2000 5500 2000
Wire Wire Line
	6100 1800 6300 1800
Wire Wire Line
	5700 1600 6300 1600
Wire Wire Line
	6200 1600 6200 1800
Connection ~ 5700 1700
Connection ~ 6200 1800
Text GLabel 6300 1800 2    47   Input ~ 0
T_SWIM_DAT
$Comp
L R R26
U 1 1 5ABBD5E6
P 6450 1600
F 0 "R26" V 6530 1600 50  0000 C CNN
F 1 "680R" V 6450 1600 50  0000 C CNN
F 2 "Local:R_0603" V 6380 1600 50  0001 C CNN
F 3 "" H 6450 1600 50  0000 C CNN
	1    6450 1600
	0    -1   -1   0   
$EndComp
Connection ~ 6200 1600
Wire Wire Line
	6600 1600 6700 1600
Wire Wire Line
	5500 2100 5800 2100
$Comp
L R R28
U 1 1 5ABBDE4A
P 5950 2100
F 0 "R28" V 6030 2100 50  0000 C CNN
F 1 "220R" V 5950 2100 50  0000 C CNN
F 2 "Local:R_0603" V 5880 2100 50  0001 C CNN
F 3 "" H 5950 2100 50  0000 C CNN
	1    5950 2100
	0    -1   -1   0   
$EndComp
Wire Wire Line
	5500 2200 6300 2200
Text GLabel 6300 2200 2    47   Input ~ 0
T_SWCLK_JTCK
Wire Wire Line
	5500 2300 6200 2300
Wire Wire Line
	6200 2300 6200 2100
Wire Wire Line
	6100 2100 6300 2100
Connection ~ 6200 2100
Text GLabel 6300 2100 2    47   Input ~ 0
T_SWDIO_JTMS
Wire Wire Line
	5500 2400 5600 2400
NoConn ~ 5600 2400
Wire Wire Line
	1300 1400 1200 1400
Wire Wire Line
	1300 1500 1200 1500
Wire Wire Line
	1300 1600 1200 1600
Text GLabel 1200 1400 0    47   Input ~ 0
T_SWCLK_JTCK
Text GLabel 1200 1500 0    47   Input ~ 0
T_SWO_JTDO
Wire Wire Line
	1300 1700 1200 1700
Wire Wire Line
	1300 1000 1200 1000
Wire Wire Line
	1300 1100 1200 1100
Wire Wire Line
	1300 1200 1200 1200
Wire Wire Line
	1200 1300 1300 1300
Wire Wire Line
	1300 2200 1200 2200
Wire Wire Line
	1300 2300 1200 2300
Wire Wire Line
	1300 2400 1200 2400
NoConn ~ 1200 2400
NoConn ~ 1200 2300
NoConn ~ 1200 2200
NoConn ~ 1200 1700
NoConn ~ 1200 1300
NoConn ~ 1200 1200
NoConn ~ 1200 1100
NoConn ~ 1200 1000
Wire Wire Line
	5500 1200 5600 1200
Wire Wire Line
	5500 1300 5600 1300
NoConn ~ 5600 1200
NoConn ~ 5600 1300
$Comp
L SWDO J32
U 1 1 5ABBF9AD
P 8100 5900
F 0 "J32" H 8100 6250 60  0000 C CNN
F 1 "SWD" V 8300 5900 60  0000 C CNN
F 2 "Local:Pin_Header_Straight_1x05_Pitch2.00mm" H 7900 5900 60  0001 C CNN
F 3 "" H 7900 5900 60  0000 C CNN
	1    8100 5900
	1    0    0    -1  
$EndComp
$Comp
L SWIM J31
U 1 1 5ABB5072
P 8100 5150
F 0 "J31" H 8100 5450 60  0000 C CNN
F 1 "SWIM" V 8300 5150 60  0000 C CNN
F 2 "Local:Pin_Header_Straight_1x04_Pitch2.00mm" H 8050 5150 60  0001 C CNN
F 3 "" H 8050 5150 60  0001 C CNN
	1    8100 5150
	1    0    0    -1  
$EndComp
$Comp
L RJ12 J33
U 1 1 5ABB609B
P 9750 5300
F 0 "J33" H 9950 5800 50  0000 C CNN
F 1 "RJ12" H 9600 5800 50  0000 C CNN
F 2 "Local:RJ12-06P" H 9750 5300 50  0001 C CNN
F 3 "" H 9750 5300 50  0000 C CNN
	1    9750 5300
	0    1    1    0   
$EndComp
$Comp
L UART J1
U 1 1 5ABB66DB
P 8100 4350
F 0 "J1" H 8100 4650 60  0000 C CNN
F 1 "UART" H 8100 4050 60  0000 C CNN
F 2 "Local:Pin_Header_Straight_1x04_Pitch2.00mm" H 7900 4350 60  0001 C CNN
F 3 "" H 7900 4350 60  0000 C CNN
	1    8100 4350
	1    0    0    -1  
$EndComp
Text GLabel 7600 4200 0    47   Input ~ 0
U_BL_TX
Text GLabel 7600 4400 0    47   Input ~ 0
U_BL_RX
Wire Wire Line
	7700 4200 7600 4200
Wire Wire Line
	7700 4400 7600 4400
Wire Wire Line
	7700 4300 7600 4300
Wire Wire Line
	7700 4500 7600 4500
$Comp
L +3V3 #PWR041
U 1 1 5ABB72B7
P 7600 4300
F 0 "#PWR041" H 7600 4150 50  0001 C CNN
F 1 "+3V3" V 7600 4500 50  0000 C CNN
F 2 "" H 7600 4300 50  0000 C CNN
F 3 "" H 7600 4300 50  0000 C CNN
	1    7600 4300
	0    -1   -1   0   
$EndComp
$Comp
L GND #PWR042
U 1 1 5ABB7452
P 7600 4500
F 0 "#PWR042" H 7600 4250 50  0001 C CNN
F 1 "GND" V 7600 4300 50  0000 C CNN
F 2 "" H 7600 4500 50  0000 C CNN
F 3 "" H 7600 4500 50  0000 C CNN
	1    7600 4500
	0    1    1    0   
$EndComp
Wire Wire Line
	10150 5800 10150 6000
Wire Wire Line
	10150 5900 10050 5900
Wire Wire Line
	10050 5900 10050 5800
Connection ~ 10150 5900
$Comp
L GND #PWR043
U 1 1 5ABB8168
P 10150 6000
F 0 "#PWR043" H 10150 5750 50  0001 C CNN
F 1 "GND" H 10150 5850 50  0000 C CNN
F 2 "" H 10150 6000 50  0000 C CNN
F 3 "" H 10150 6000 50  0000 C CNN
	1    10150 6000
	1    0    0    -1  
$EndComp
Wire Wire Line
	9300 5100 9200 5100
Wire Wire Line
	9300 5600 9200 5600
NoConn ~ 9200 5600
NoConn ~ 9200 5100
Wire Wire Line
	7700 6000 7600 6000
Wire Wire Line
	7700 5800 7600 5800
Wire Wire Line
	7700 5900 7600 5900
Wire Wire Line
	7700 5700 7600 5700
Wire Wire Line
	7700 5300 7600 5300
Wire Wire Line
	7700 5200 7600 5200
Wire Wire Line
	7700 5100 7600 5100
Wire Wire Line
	7700 5000 7600 5000
Text GLabel 7600 5000 0    47   Input ~ 0
VTG
Text GLabel 7600 5800 0    47   Input ~ 0
VTG
$Comp
L GND #PWR044
U 1 1 5ABB916E
P 7600 5200
F 0 "#PWR044" H 7600 4950 50  0001 C CNN
F 1 "GND" V 7600 5000 50  0000 C CNN
F 2 "" H 7600 5200 50  0000 C CNN
F 3 "" H 7600 5200 50  0000 C CNN
	1    7600 5200
	0    1    1    0   
$EndComp
$Comp
L GND #PWR045
U 1 1 5ABB91F1
P 7600 6000
F 0 "#PWR045" H 7600 5750 50  0001 C CNN
F 1 "GND" V 7600 5800 50  0000 C CNN
F 2 "" H 7600 6000 50  0000 C CNN
F 3 "" H 7600 6000 50  0000 C CNN
	1    7600 6000
	0    1    1    0   
$EndComp
$Comp
L GND #PWR046
U 1 1 5ABB9274
P 9200 5500
F 0 "#PWR046" H 9200 5250 50  0001 C CNN
F 1 "GND" V 9200 5300 50  0000 C CNN
F 2 "" H 9200 5500 50  0000 C CNN
F 3 "" H 9200 5500 50  0000 C CNN
	1    9200 5500
	0    1    1    0   
$EndComp
Wire Wire Line
	9300 5500 9200 5500
Wire Wire Line
	9300 5300 9200 5300
Text GLabel 9200 5300 0    47   Input ~ 0
VTG
Wire Wire Line
	9300 5200 9200 5200
Wire Wire Line
	9300 5400 9200 5400
Text GLabel 6700 1600 2    47   Input ~ 0
VTG
Text GLabel 7600 5100 0    47   Input ~ 0
H_SWIM_DAT
Text GLabel 7600 5300 0    47   Input ~ 0
H_SWIM_RST
$Comp
L D_Zener D41
U 1 1 5ABC1477
P 3000 5950
F 0 "D41" H 3000 6050 50  0000 C CNN
F 1 "5V1" H 3000 5850 50  0000 C CNN
F 2 "Local:D_MiniMELF" H 3000 5950 50  0001 C CNN
F 3 "" H 3000 5950 50  0000 C CNN
	1    3000 5950
	0    -1   1    0   
$EndComp
$Comp
L GND #PWR047
U 1 1 5ABC147D
P 3000 6200
F 0 "#PWR047" H 3000 5950 50  0001 C CNN
F 1 "GND" H 3000 6050 50  0000 C CNN
F 2 "" H 3000 6200 50  0000 C CNN
F 3 "" H 3000 6200 50  0000 C CNN
	1    3000 6200
	1    0    0    -1  
$EndComp
Wire Wire Line
	3000 5800 3000 5700
Wire Wire Line
	3000 6100 3000 6200
$Comp
L R R41
U 1 1 5ABC1485
P 3250 5700
F 0 "R41" V 3330 5700 50  0000 C CNN
F 1 "22R" V 3250 5700 50  0000 C CNN
F 2 "Local:R_0603" V 3180 5700 50  0001 C CNN
F 3 "" H 3250 5700 50  0000 C CNN
	1    3250 5700
	0    -1   -1   0   
$EndComp
Wire Wire Line
	2900 5700 3100 5700
Connection ~ 3000 5700
Wire Wire Line
	3400 5700 3500 5700
Text GLabel 2900 5700 0    47   Input ~ 0
T_SWDIO_JTMS
Text GLabel 3500 5700 2    47   Input ~ 0
H_SWDIO_JTMS
$Comp
L D_Zener D42
U 1 1 5ABC1AD0
P 3000 6850
F 0 "D42" H 3000 6950 50  0000 C CNN
F 1 "5V1" H 3000 6750 50  0000 C CNN
F 2 "Local:D_MiniMELF" H 3000 6850 50  0001 C CNN
F 3 "" H 3000 6850 50  0000 C CNN
	1    3000 6850
	0    -1   1    0   
$EndComp
$Comp
L GND #PWR048
U 1 1 5ABC1AD6
P 3000 7100
F 0 "#PWR048" H 3000 6850 50  0001 C CNN
F 1 "GND" H 3000 6950 50  0000 C CNN
F 2 "" H 3000 7100 50  0000 C CNN
F 3 "" H 3000 7100 50  0000 C CNN
	1    3000 7100
	1    0    0    -1  
$EndComp
Wire Wire Line
	3000 6700 3000 6600
Wire Wire Line
	3000 7000 3000 7100
$Comp
L R R42
U 1 1 5ABC1ADE
P 3250 6600
F 0 "R42" V 3330 6600 50  0000 C CNN
F 1 "22R" V 3250 6600 50  0000 C CNN
F 2 "Local:R_0603" V 3180 6600 50  0001 C CNN
F 3 "" H 3250 6600 50  0000 C CNN
	1    3250 6600
	0    -1   -1   0   
$EndComp
Wire Wire Line
	2900 6600 3100 6600
Connection ~ 3000 6600
Wire Wire Line
	3400 6600 3500 6600
Text GLabel 2900 6600 0    47   Input ~ 0
T_SWCLK_JTCK
Text GLabel 3500 6600 2    47   Input ~ 0
H_SWCLK_JTCK
$Comp
L D_Zener D43
U 1 1 5ABC2350
P 1200 6850
F 0 "D43" H 1200 6950 50  0000 C CNN
F 1 "5V1" H 1200 6750 50  0000 C CNN
F 2 "Local:D_MiniMELF" H 1200 6850 50  0001 C CNN
F 3 "" H 1200 6850 50  0000 C CNN
	1    1200 6850
	0    -1   1    0   
$EndComp
$Comp
L GND #PWR049
U 1 1 5ABC2356
P 1200 7100
F 0 "#PWR049" H 1200 6850 50  0001 C CNN
F 1 "GND" H 1200 6950 50  0000 C CNN
F 2 "" H 1200 7100 50  0000 C CNN
F 3 "" H 1200 7100 50  0000 C CNN
	1    1200 7100
	1    0    0    -1  
$EndComp
Wire Wire Line
	1200 6700 1200 6600
Wire Wire Line
	1200 7000 1200 7100
$Comp
L R R43
U 1 1 5ABC235E
P 1450 6600
F 0 "R43" V 1530 6600 50  0000 C CNN
F 1 "22R" V 1450 6600 50  0000 C CNN
F 2 "Local:R_0603" V 1380 6600 50  0001 C CNN
F 3 "" H 1450 6600 50  0000 C CNN
	1    1450 6600
	0    -1   -1   0   
$EndComp
Wire Wire Line
	1100 6600 1300 6600
Connection ~ 1200 6600
Wire Wire Line
	1600 6600 1700 6600
Text GLabel 1100 6600 0    47   Input ~ 0
T_SWO_JTDO
Text GLabel 1700 6600 2    47   Input ~ 0
H_SWO_JTDO
$Comp
L D_Zener D44
U 1 1 5ABC28EA
P 4900 5950
F 0 "D44" H 4900 6050 50  0000 C CNN
F 1 "5V1" H 4900 5850 50  0000 C CNN
F 2 "Local:D_MiniMELF" H 4900 5950 50  0001 C CNN
F 3 "" H 4900 5950 50  0000 C CNN
	1    4900 5950
	0    -1   1    0   
$EndComp
$Comp
L GND #PWR050
U 1 1 5ABC28F0
P 4900 6200
F 0 "#PWR050" H 4900 5950 50  0001 C CNN
F 1 "GND" H 4900 6050 50  0000 C CNN
F 2 "" H 4900 6200 50  0000 C CNN
F 3 "" H 4900 6200 50  0000 C CNN
	1    4900 6200
	1    0    0    -1  
$EndComp
Wire Wire Line
	4900 5800 4900 5700
Wire Wire Line
	4900 6100 4900 6200
$Comp
L R R44
U 1 1 5ABC28F8
P 5150 5700
F 0 "R44" V 5230 5700 50  0000 C CNN
F 1 "22R" V 5150 5700 50  0000 C CNN
F 2 "Local:R_0603" V 5080 5700 50  0001 C CNN
F 3 "" H 5150 5700 50  0000 C CNN
	1    5150 5700
	0    -1   -1   0   
$EndComp
Wire Wire Line
	4800 5700 5000 5700
Connection ~ 4900 5700
Wire Wire Line
	5300 5700 5400 5700
Text GLabel 4800 5700 0    47   Input ~ 0
T_SWIM_DAT
Text GLabel 5400 5700 2    47   Input ~ 0
H_SWIM_DAT
$Comp
L D_Zener D45
U 1 1 5ABC5682
P 4900 6850
F 0 "D45" H 4900 6950 50  0000 C CNN
F 1 "5V1" H 4900 6750 50  0000 C CNN
F 2 "Local:D_MiniMELF" H 4900 6850 50  0001 C CNN
F 3 "" H 4900 6850 50  0000 C CNN
	1    4900 6850
	0    -1   1    0   
$EndComp
$Comp
L GND #PWR051
U 1 1 5ABC5688
P 4900 7100
F 0 "#PWR051" H 4900 6850 50  0001 C CNN
F 1 "GND" H 4900 6950 50  0000 C CNN
F 2 "" H 4900 7100 50  0000 C CNN
F 3 "" H 4900 7100 50  0000 C CNN
	1    4900 7100
	1    0    0    -1  
$EndComp
Wire Wire Line
	4900 6700 4900 6600
Wire Wire Line
	4900 7000 4900 7100
$Comp
L R R45
U 1 1 5ABC5690
P 5150 6600
F 0 "R45" V 5230 6600 50  0000 C CNN
F 1 "22R" V 5150 6600 50  0000 C CNN
F 2 "Local:R_0603" V 5080 6600 50  0001 C CNN
F 3 "" H 5150 6600 50  0000 C CNN
	1    5150 6600
	0    -1   -1   0   
$EndComp
Wire Wire Line
	4800 6600 5000 6600
Connection ~ 4900 6600
Wire Wire Line
	5300 6600 5400 6600
Text GLabel 4800 6600 0    47   Input ~ 0
T_SWIM_RST
Text GLabel 5400 6600 2    47   Input ~ 0
H_SWIM_RST
$Comp
L LED D20
U 1 1 5ABC5F13
P 7800 2350
F 0 "D20" H 7800 2450 50  0000 C CNN
F 1 "GREEN" H 7800 2250 50  0000 C CNN
F 2 "Local:LED_0603" H 7800 2350 50  0001 C CNN
F 3 "" H 7800 2350 50  0000 C CNN
	1    7800 2350
	0    -1   -1   0   
$EndComp
$Comp
L LED D21
U 1 1 5ABC61F5
P 7800 2850
F 0 "D21" H 7800 2950 50  0000 C CNN
F 1 "RED" H 7800 2750 50  0000 C CNN
F 2 "Local:LED_0603" H 7800 2850 50  0001 C CNN
F 3 "" H 7800 2850 50  0000 C CNN
	1    7800 2850
	0    -1   -1   0   
$EndComp
Wire Wire Line
	7800 2500 7800 2700
Wire Wire Line
	7800 2600 7700 2600
Connection ~ 7800 2600
Wire Wire Line
	7800 2200 7800 2100
Wire Wire Line
	7800 3000 7800 3100
$Comp
L R R20
U 1 1 5ABC7570
P 7800 1950
F 0 "R20" V 7880 1950 50  0000 C CNN
F 1 "470R" V 7800 1950 50  0000 C CNN
F 2 "Local:R_0603" V 7730 1950 50  0001 C CNN
F 3 "" H 7800 1950 50  0000 C CNN
	1    7800 1950
	-1   0    0    1   
$EndComp
$Comp
L R R21
U 1 1 5ABC7ABB
P 7800 3250
F 0 "R21" V 7880 3250 50  0000 C CNN
F 1 "1K" V 7800 3250 50  0000 C CNN
F 2 "Local:R_0603" V 7730 3250 50  0001 C CNN
F 3 "" H 7800 3250 50  0000 C CNN
	1    7800 3250
	-1   0    0    1   
$EndComp
Wire Wire Line
	7800 3400 7800 3500
$Comp
L GND #PWR052
U 1 1 5ABC7F65
P 7800 3500
F 0 "#PWR052" H 7800 3250 50  0001 C CNN
F 1 "GND" H 7800 3350 50  0000 C CNN
F 2 "" H 7800 3500 50  0000 C CNN
F 3 "" H 7800 3500 50  0000 C CNN
	1    7800 3500
	1    0    0    -1  
$EndComp
$Comp
L +3V3 #PWR053
U 1 1 5ABC82D8
P 7800 1700
F 0 "#PWR053" H 7800 1550 50  0001 C CNN
F 1 "+3V3" H 7800 1840 50  0000 C CNN
F 2 "" H 7800 1700 50  0000 C CNN
F 3 "" H 7800 1700 50  0000 C CNN
	1    7800 1700
	1    0    0    -1  
$EndComp
Wire Wire Line
	7800 1700 7800 1800
Text GLabel 7700 2600 0    47   Input ~ 0
U_BL_TX
Text GLabel 7600 5700 0    47   Input ~ 0
H_SWDIO_JTMS
Text GLabel 7600 5900 0    47   Input ~ 0
H_SWCLK_JTCK
Text GLabel 9200 5400 0    47   Input ~ 0
H_SWCLK_JTCK
Text GLabel 9200 5200 0    47   Input ~ 0
H_SWDIO_JTMS
Text GLabel 1200 7500 0    47   Input ~ 0
U_BL_RX
Text GLabel 1700 7500 2    47   Input ~ 0
T_SWO_JTDO
$Comp
L R R22
U 1 1 5ABCC16B
P 1450 7500
F 0 "R22" V 1530 7500 50  0000 C CNN
F 1 "10R" V 1450 7500 50  0000 C CNN
F 2 "Local:R_0603" V 1380 7500 50  0001 C CNN
F 3 "" H 1450 7500 50  0000 C CNN
	1    1450 7500
	0    -1   -1   0   
$EndComp
Wire Wire Line
	1700 7500 1600 7500
Wire Wire Line
	1300 7500 1200 7500
Text GLabel 6400 5750 1    47   Input ~ 0
VTG
$Comp
L PWR_FLAG #FLG054
U 1 1 5ABD13DB
P 6400 5850
F 0 "#FLG054" H 6400 5945 50  0001 C CNN
F 1 "PWR_FLAG" H 6400 6030 50  0000 C CNN
F 2 "" H 6400 5850 50  0000 C CNN
F 3 "" H 6400 5850 50  0000 C CNN
	1    6400 5850
	-1   0    0    1   
$EndComp
Wire Wire Line
	6400 5750 6400 5850
$Comp
L GND #PWR055
U 1 1 5ABD2C2E
P 6400 6450
F 0 "#PWR055" H 6400 6200 50  0001 C CNN
F 1 "GND" H 6400 6300 50  0000 C CNN
F 2 "" H 6400 6450 50  0000 C CNN
F 3 "" H 6400 6450 50  0000 C CNN
	1    6400 6450
	1    0    0    -1  
$EndComp
$Comp
L PWR_FLAG #FLG056
U 1 1 5ABD2EFD
P 6400 6350
F 0 "#FLG056" H 6400 6445 50  0001 C CNN
F 1 "PWR_FLAG" H 6400 6530 50  0000 C CNN
F 2 "" H 6400 6350 50  0000 C CNN
F 3 "" H 6400 6350 50  0000 C CNN
	1    6400 6350
	1    0    0    -1  
$EndComp
Wire Wire Line
	6400 6450 6400 6350
NoConn ~ 5600 1000
$Comp
L R R3
U 1 1 5ABD77D3
P 5750 1100
F 0 "R3" V 5830 1100 50  0000 C CNN
F 1 "10R" V 5750 1100 50  0000 C CNN
F 2 "Local:R_0603" V 5680 1100 50  0001 C CNN
F 3 "" H 5750 1100 50  0000 C CNN
	1    5750 1100
	0    -1   -1   0   
$EndComp
Wire Wire Line
	6000 1100 5900 1100
Wire Wire Line
	7700 6100 7600 6100
Text GLabel 7600 6100 0    47   Input ~ 0
H_SWO_JTDO
NoConn ~ 1200 1600
NoConn ~ 5600 900 
$EndSCHEMATC
